{
    "key": "group_5e693f128aec7",
    "title": "Seed Order",
    "fields": [
        {
            "key": "field_5e693f18e0eb7",
            "label": "Seed Order",
            "name": "seed_order",
            "type": "number",
            "instructions": "Enter a number to set the field order. Remember to change numbers for other seeds if you change this number here.",
            "required": 0,
            "conditional_logic": 0,
            "wrapper": {
                "width": "",
                "class": "",
                "id": ""
            },
            "default_value": "",
            "placeholder": "",
            "prepend": "",
            "append": "",
            "min": "",
            "max": "",
            "step": ""
        }
    ],
    "location": [
        [
            {
                "param": "post_type",
                "operator": "==",
                "value": "seed"
            }
        ]
    ],
    "menu_order": 0,
    "position": "side",
    "style": "default",
    "label_placement": "top",
    "instruction_placement": "label",
    "hide_on_screen": "",
    "active": 1,
    "description": "",
    "modified": 1583955820
}